{
  "external_urls": {
    "spotify": "https://open.spotify.com/artist/7eBQrhxTHcor6gcbcLhqE5"
  },
  "followers": {
    "href": null,
    "total": 291240
  },
  "genres": [
    "guadalajara indie",
    "indie rock mexicano",
    "latin alternative",
    "latin rock",
    "mexican indie",
    "mexican rock",
    "rock en espanol"
  ],
  "href": "https://api.spotify.com/v1/artists/7eBQrhxTHcor6gcbcLhqE5",
  "id": "7eBQrhxTHcor6gcbcLhqE5",
  "images": [
    {
      "height": 640,
      "url": "https://i.scdn.co/image/ab6761610000e5eb09defb9786eec41d900c5211",
      "width": 640
    },
    {
      "height": 320,
      "url": "https://i.scdn.co/image/ab6761610000517409defb9786eec41d900c5211",
      "width": 320
    },
    {
      "height": 160,
      "url": "https://i.scdn.co/image/ab6761610000f17809defb9786eec41d900c5211",
      "width": 160
    }
  ],
  "name": "Porter",
  "popularity": 60,
  "type": "artist",
  "uri": "spotify:artist:7eBQrhxTHcor6gcbcLhqE5"
}
